{
  "project_info": {
    "project_number": "30073404603",
    "firebase_url": "https://chatting-yuk-b1c3d.firebaseio.com",
    "project_id": "chatting-yuk-b1c3d",
    "storage_bucket": "chatting-yuk-b1c3d.appspot.com"
  },
  "client": [
    {
      "client_info": {
        "mobilesdk_app_id": "1:30073404603:android:a2e000bbcf451436",
        "android_client_info": {
          "package_name": "com.mastip.chattingyuk"
        }
      },
      "oauth_client": [
        {
          "client_id": "30073404603-hsnv595dm94qm93sv59h4ogoa970h6on.apps.googleusercontent.com",
          "client_type": 1,
          "android_info": {
            "package_name": "com.mastip.chattingyuk",
            "certificate_hash": "2b323c1f4b5d1e113a24e653545a2c481b1264c4"
          }
        },
        {
          "client_id": "30073404603-qfmacg2jnu52qbshon46i2j64e0smri5.apps.googleusercontent.com",
          "client_type": 3
        }
      ],
      "api_key": [
        {
          "current_key": "AIzaSyD5asyQ-F0bLBLjQJuEpdKYrwWMvh22c8k"
        }
      ],
      "services": {
        "analytics_service": {
          "status": 1
        },
        "appinvite_service": {
          "status": 2,
          "other_platform_oauth_client": [
            {
              "client_id": "30073404603-qfmacg2jnu52qbshon46i2j64e0smri5.apps.googleusercontent.com",
              "client_type": 3
            }
          ]
        },
        "ads_service": {
          "status": 2
        }
      }
    }
  ],
  "configuration_version": "1"
}